^C:\USERS\HAFIZHIN\DOCUMENTS\VISUAL STUDIO 2010\PROJECTS\FORECAST\FORECAST\MY PROJECT\RESOURCES.RESX
^C:\USERS\HAFIZHIN\DOCUMENTS\VISUAL STUDIO 2010\PROJECTS\FORECAST\FORECAST\FORMDATAPEMAKAIAN.RESX
^C:\USERS\HAFIZHIN\DOCUMENTS\VISUAL STUDIO 2010\PROJECTS\FORECAST\FORECAST\FORMMENUUTAMA.RESX
^J:\FORECAST\FORECAST\FORMARIMA.RESX
^J:\FORECAST\FORECAST\FORMDATAPEMAKAIAN.RESX
^J:\FORECAST\FORECAST\FORMMENUUTAMA.RESX
^J:\FORECAST\FORECAST\MY PROJECT\RESOURCES.RESX
^C:\USERS\HAFIZHIN\DOCUMENTS\VISUAL STUDIO 2010\PROJECTS\FORECAST\FORECAST\FORMARIMA.RESX
^E:\FORECAST\FORECAST\FORMDATAPEMAKAIAN.RESX
^E:\FORECAST\FORECAST\FORMMENUUTAMA.RESX
^E:\FORECAST\FORECAST\MY PROJECT\RESOURCES.RESX
^I:\TA\FORECAST\FORECAST\FORMARIMA.RESX
^I:\TA\FORECAST\FORECAST\FORMDATAPEMAKAIAN.RESX
^I:\TA\FORECAST\FORECAST\FORMMENUUTAMA.RESX
^I:\TA\FORECAST\FORECAST\MY PROJECT\RESOURCES.RESX
^E:\FORECAST\FORECAST\FORMARIMA.RESX
^I:\FORECAST\FORECAST\FORMARIMA.RESX
^I:\FORECAST\FORECAST\FORMDATAPEMAKAIAN.RESX
^I:\FORECAST\FORECAST\FORMMENUUTAMA.RESX
^I:\FORECAST\FORECAST\MY PROJECT\RESOURCES.RESX
^C:\USERS\OWNER\DOCUMENTS\VISUAL STUDIO 2010\PROJECTS\FORECAST\FORECAST\FORMMENUUTAMA.RESX
^C:\USERS\OWNER\DOCUMENTS\VISUAL STUDIO 2010\PROJECTS\FORECAST\FORECAST\MY PROJECT\RESOURCES.RESX
^C:\USERS\OWNER\DOCUMENTS\VISUAL STUDIO 2010\PROJECTS\FORECAST\FORECAST\FORMDATAPEMAKAIAN.RESX
^C:\USERS\OWNER\DOCUMENTS\VISUAL STUDIO 2010\PROJECTS\FORECAST\FORECAST\FORMARIMA.RESX
^C:\USERS\HAFIZHIN\DOWNLOADS\COMPRESSED\FORECAST\FORECAST\FORMDATAPEMAKAIAN.RESX
^C:\USERS\HAFIZHIN\DOWNLOADS\COMPRESSED\FORECAST\FORECAST\FORMMENUUTAMA.RESX
^C:\USERS\HAFIZHIN\DOWNLOADS\COMPRESSED\FORECAST\FORECAST\MY PROJECT\RESOURCES.RESX
^C:\USERS\HAFIZHIN\DOWNLOADS\COMPRESSED\FORECAST\FORECAST\FORMARIMA.RESX
